^C:\USERS\NACHO.DESKTOP-VH1TN00\DESKTOP\PRACTICA PROFESIONAL\REPOS\PONG\TESTEORAYLIB\TESTING\DEBUG\BALL.OBJ|C:\USERS\NACHO.DESKTOP-VH1TN00\DESKTOP\PRACTICA PROFESIONAL\REPOS\PONG\TESTEORAYLIB\TESTING\DEBUG\MAIN.OBJ|C:\USERS\NACHO.DESKTOP-VH1TN00\DESKTOP\PRACTICA PROFESIONAL\REPOS\PONG\TESTEORAYLIB\TESTING\DEBUG\PCH.OBJ|C:\USERS\NACHO.DESKTOP-VH1TN00\DESKTOP\PRACTICA PROFESIONAL\REPOS\PONG\TESTEORAYLIB\TESTING\DEBUG\PLAYER.OBJ|C:\USERS\NACHO.DESKTOP-VH1TN00\DESKTOP\PRACTICA PROFESIONAL\REPOS\PONG\TESTEORAYLIB\TESTING\DEBUG\SCREENS.OBJ
C:\USERS\NACHO.DESKTOP-VH1TN00\DESKTOP\PRACTICA PROFESIONAL\REPOS\PONG\TESTEORAYLIB\DEBUG\TESTING.EXE
C:\USERS\NACHO.DESKTOP-VH1TN00\DESKTOP\PRACTICA PROFESIONAL\REPOS\PONG\TESTEORAYLIB\DEBUG\TESTING.ILK
C:\USERS\NACHO.DESKTOP-VH1TN00\DESKTOP\PRACTICA PROFESIONAL\REPOS\PONG\TESTEORAYLIB\DEBUG\TESTING.PDB
