^C:\USERS\NACHO.DESKTOP-VH1TN00\DESKTOP\PRACTICA PROFESIONAL\REPOS\PONG\TESTEORAYLIB\TESTING\RELEASE\BALL.OBJ|C:\USERS\NACHO.DESKTOP-VH1TN00\DESKTOP\PRACTICA PROFESIONAL\REPOS\PONG\TESTEORAYLIB\TESTING\RELEASE\MAIN.OBJ|C:\USERS\NACHO.DESKTOP-VH1TN00\DESKTOP\PRACTICA PROFESIONAL\REPOS\PONG\TESTEORAYLIB\TESTING\RELEASE\PCH.OBJ|C:\USERS\NACHO.DESKTOP-VH1TN00\DESKTOP\PRACTICA PROFESIONAL\REPOS\PONG\TESTEORAYLIB\TESTING\RELEASE\PLAYER.OBJ|C:\USERS\NACHO.DESKTOP-VH1TN00\DESKTOP\PRACTICA PROFESIONAL\REPOS\PONG\TESTEORAYLIB\TESTING\RELEASE\SCREENS.OBJ
C:\USERS\NACHO.DESKTOP-VH1TN00\DESKTOP\PRACTICA PROFESIONAL\REPOS\PONG\TESTEORAYLIB\RELEASE\TESTING.EXE
C:\USERS\NACHO.DESKTOP-VH1TN00\DESKTOP\PRACTICA PROFESIONAL\REPOS\PONG\TESTEORAYLIB\RELEASE\TESTING.PDB
