^C:\Users\Nacho.DESKTOP-VH1TN00\Desktop\Practica Profesional\Repos\pong\TesteoRaylib\Testing\Testing.vcxproj
C:\Users\Nacho.DESKTOP-VH1TN00\Desktop\Practica Profesional\Repos\pong\TesteoRaylib\Release\Testing.ipdb
C:\Users\Nacho.DESKTOP-VH1TN00\Desktop\Practica Profesional\Repos\pong\TesteoRaylib\Release\Testing.iobj
^C:\Users\Nacho.DESKTOP-VH1TN00\Desktop\Practica Profesional\Repos\pong\TesteoRaylib\Testing\Testing.vcxproj
C:\Users\Nacho.DESKTOP-VH1TN00\Desktop\Practica Profesional\Repos\pong\TesteoRaylib\Release\Testing.ipdb
C:\Users\Nacho.DESKTOP-VH1TN00\Desktop\Practica Profesional\Repos\pong\TesteoRaylib\Release\Testing.iobj
^C:\Users\Nacho.DESKTOP-VH1TN00\Desktop\Practica Profesional\Repos\pong\TesteoRaylib\Testing\Testing.vcxproj
C:\Users\Nacho.DESKTOP-VH1TN00\Desktop\Practica Profesional\Repos\pong\TesteoRaylib\Release\Testing.ipdb
C:\Users\Nacho.DESKTOP-VH1TN00\Desktop\Practica Profesional\Repos\pong\TesteoRaylib\Release\Testing.iobj
^C:\Users\Nacho.DESKTOP-VH1TN00\Desktop\Practica Profesional\Repos\pong\TesteoRaylib\Testing\Testing.vcxproj
C:\Users\Nacho.DESKTOP-VH1TN00\Desktop\Practica Profesional\Repos\pong\TesteoRaylib\Release\Testing.ipdb
C:\Users\Nacho.DESKTOP-VH1TN00\Desktop\Practica Profesional\Repos\pong\TesteoRaylib\Release\Testing.iobj
^C:\Users\Nacho.DESKTOP-VH1TN00\Desktop\Practica Profesional\Repos\pong\TesteoRaylib\Testing\Testing.vcxproj
C:\Users\Nacho.DESKTOP-VH1TN00\Desktop\Practica Profesional\Repos\pong\TesteoRaylib\Release\Testing.ipdb
C:\Users\Nacho.DESKTOP-VH1TN00\Desktop\Practica Profesional\Repos\pong\TesteoRaylib\Release\Testing.iobj
^C:\Users\Nacho.DESKTOP-VH1TN00\Desktop\Practica Profesional\Repos\pong\TesteoRaylib\Testing\Testing.vcxproj
C:\Users\Nacho.DESKTOP-VH1TN00\Desktop\Practica Profesional\Repos\pong\TesteoRaylib\Release\Testing.ipdb
C:\Users\Nacho.DESKTOP-VH1TN00\Desktop\Practica Profesional\Repos\pong\TesteoRaylib\Release\Testing.iobj
^C:\Users\Nacho.DESKTOP-VH1TN00\Desktop\Practica Profesional\Repos\pong\TesteoRaylib\Testing\Testing.vcxproj
C:\Users\Nacho.DESKTOP-VH1TN00\Desktop\Practica Profesional\Repos\pong\TesteoRaylib\Release\Testing.ipdb
C:\Users\Nacho.DESKTOP-VH1TN00\Desktop\Practica Profesional\Repos\pong\TesteoRaylib\Release\Testing.iobj
^C:\Users\Nacho.DESKTOP-VH1TN00\Desktop\Practica Profesional\Repos\pong\TesteoRaylib\Testing\Testing.vcxproj
C:\Users\Nacho.DESKTOP-VH1TN00\Desktop\Practica Profesional\Repos\pong\TesteoRaylib\Release\Testing.ipdb
C:\Users\Nacho.DESKTOP-VH1TN00\Desktop\Practica Profesional\Repos\pong\TesteoRaylib\Release\Testing.iobj
^C:\Users\Nacho.DESKTOP-VH1TN00\Desktop\Practica Profesional\Repos\pong\TesteoRaylib\Testing\Testing.vcxproj
C:\Users\Nacho.DESKTOP-VH1TN00\Desktop\Practica Profesional\Repos\pong\TesteoRaylib\Release\Testing.ipdb
C:\Users\Nacho.DESKTOP-VH1TN00\Desktop\Practica Profesional\Repos\pong\TesteoRaylib\Release\Testing.iobj
